<?xml version="1.0" encoding="utf-8"?>
<!-- Generator: Adobe Illustrator 27.2.0, SVG Export Plug-In . SVG Version: 6.00 Build 0)  -->
<svg version="1.2" baseProfile="tiny" id="icon" xmlns="http://www.w3.org/2000/svg" xmlns:xlink="http://www.w3.org/1999/xlink"
	 x="0px" y="0px" viewBox="0 0 1024 1024" overflow="visible" xml:space="preserve">
<g id="paper">
	<g>
		<path fill="#FFFFFF" d="M244.8,911.3c-23.2,0-42-18.8-42-42V345.2c0-10.8,4.1-21.1,11.6-29l181.6-190.5c7.9-8.3,19-13,30.4-13
			h337.4c23.2,0,42,18.8,42,42v714.6c0,23.2-18.8,42-42,42H244.8z"/>
		<path fill="#1B9AAA" d="M763.9,124.7c16.6,0,30,13.4,30,30v714.6c0,16.6-13.4,30-30,30H244.8c-16.6,0-30-13.4-30-30V345.2
			c0-7.7,3-15.1,8.3-20.7L404.7,134c5.7-5.9,13.5-9.3,21.7-9.3H763.9 M763.9,100.7H426.4c-14.7,0-28.9,6.1-39.1,16.7L205.7,307.9
			c-9.6,10.1-14.9,23.3-14.9,37.3v524.1c0,29.8,24.2,54,54,54h519.1c29.8,0,54-24.2,54-54V154.7
			C817.9,124.9,793.7,100.7,763.9,100.7L763.9,100.7z"/>
	</g>
	<path fill="#FFFFFF" stroke="#1B9AAA" stroke-width="24" stroke-miterlimit="10" d="M427,124.7v179.2c0,23.5-19.1,42.6-42.6,42.6
		H214.8"/>
	<g id="Text">
		<line fill="#FFFFFF" stroke="#1B9AAA" stroke-width="24" stroke-miterlimit="10" x1="542.3" y1="210.8" x2="632.3" y2="210.8"/>
		<line fill="#FFFFFF" stroke="#1B9AAA" stroke-width="24" stroke-miterlimit="10" x1="669.6" y1="210.8" x2="718.5" y2="210.8"/>
		<line fill="#FFFFFF" stroke="#1B9AAA" stroke-width="24" stroke-miterlimit="10" x1="285.9" y1="448" x2="453" y2="448"/>
		<line fill="#FFFFFF" stroke="#1B9AAA" stroke-width="24" stroke-miterlimit="10" x1="503.5" y1="448" x2="584" y2="448"/>
		<line fill="#FFFFFF" stroke="#1B9AAA" stroke-width="24" stroke-miterlimit="10" x1="617.9" y1="448" x2="692.5" y2="448"/>
		<line fill="#FFFFFF" stroke="#1B9AAA" stroke-width="24" stroke-miterlimit="10" x1="285.9" y1="533.8" x2="376.8" y2="533.8"/>
		<line fill="#FFFFFF" stroke="#1B9AAA" stroke-width="24" stroke-miterlimit="10" x1="509" y1="533.8" x2="589.6" y2="533.8"/>
		<line fill="#FFFFFF" stroke="#1B9AAA" stroke-width="24" stroke-miterlimit="10" x1="284.7" y1="614.7" x2="322" y2="614.7"/>
		<line fill="#FFFFFF" stroke="#1B9AAA" stroke-width="24" stroke-miterlimit="10" x1="630.7" y1="533.8" x2="667.9" y2="533.8"/>
		<line fill="#FFFFFF" stroke="#1B9AAA" stroke-width="24" stroke-miterlimit="10" x1="680.2" y1="533.8" x2="717.5" y2="533.8"/>
		<line fill="#FFFFFF" stroke="#1B9AAA" stroke-width="24" stroke-miterlimit="10" x1="404.1" y1="533.8" x2="484.6" y2="533.8"/>
		<line fill="#FFFFFF" stroke="#1B9AAA" stroke-width="24" stroke-miterlimit="10" x1="350.8" y1="614.7" x2="516.5" y2="614.7"/>
		<line fill="#FFFFFF" stroke="#1B9AAA" stroke-width="24" stroke-miterlimit="10" x1="542.3" y1="614.7" x2="579.6" y2="614.7"/>
		<line fill="#FFFFFF" stroke="#1B9AAA" stroke-width="24" stroke-miterlimit="10" x1="686.7" y1="836" x2="724" y2="836"/>
		<line fill="#FFFFFF" stroke="#1B9AAA" stroke-width="24" stroke-miterlimit="10" x1="642.4" y1="781.5" x2="723" y2="781.5"/>
	</g>
</g>
<g id="pencil">
	<polyline fill="#FFBF69" stroke="#1B9AAA" stroke-width="24" stroke-miterlimit="10" points="369.4,819 759.9,339.8 864.9,425.4 
		474.5,904.7 	"/>
	<path id="eraser" fill="#E87EA1" stroke="#1B9AAA" stroke-width="24" stroke-miterlimit="10" d="M848.2,268.8l68.3,55.7
		c10.1,8.3,11.7,23.2,3.4,33.3l-55.1,67.6l-105.1-85.6l55.1-67.6C823.2,262.1,838.1,260.6,848.2,268.8z"/>
	<path fill="#FFE2C0" stroke="#1B9AAA" stroke-width="24" stroke-linejoin="round" stroke-miterlimit="10" d="M335.1,948.9
		L369.4,819l0,0c41.8,19.1,77.9,48.6,105.1,85.6l0,0l-120.3,59.9C343.8,969.7,332.1,960.2,335.1,948.9z"/>
	<circle fill="#1B9AAA" cx="360" cy="939.5" r="21.9"/>
</g>
</svg>
